%YAML 1.1
%TAG !u! tag:unity3d.com,2011:
--- !u!1 &4060409928005448737
GameObject:
  m_ObjectHideFlags: 0
  m_CorrespondingSourceObject: {fileID: 0}
  m_PrefabInstance: {fileID: 0}
  m_PrefabAsset: {fileID: 0}
  serializedVersion: 6
  m_Component:
  - component: {fileID: 349709765867478825}
  - component: {fileID: 1325291572122092856}
  - component: {fileID: 1404170442045928834}
  m_Layer: 31
  m_Name: Layer1
  m_TagString: Untagged
  m_Icon: {fileID: 0}
  m_NavMeshLayer: 0
  m_StaticEditorFlags: 0
  m_IsActive: 1
--- !u!4 &349709765867478825
Transform:
  m_ObjectHideFlags: 0
  m_CorrespondingSourceObject: {fileID: 0}
  m_PrefabInstance: {fileID: 0}
  m_PrefabAsset: {fileID: 0}
  m_GameObject: {fileID: 4060409928005448737}
  m_LocalRotation: {x: -0, y: -0, z: -0, w: 1}
  m_LocalPosition: {x: 0, y: 0, z: 0}
  m_LocalScale: {x: 1, y: 1, z: 1}
  m_Children: []
  m_Father: {fileID: 2569876062651468194}
  m_RootOrder: 0
  m_LocalEulerAnglesHint: {x: 0, y: 0, z: 0}
--- !u!1839735485 &1325291572122092856
Tilemap:
  m_ObjectHideFlags: 0
  m_CorrespondingSourceObject: {fileID: 0}
  m_PrefabInstance: {fileID: 0}
  m_PrefabAsset: {fileID: 0}
  m_GameObject: {fileID: 4060409928005448737}
  m_Enabled: 1
  m_Tiles:
  - first: {x: -9, y: -5, z: 0}
    second:
      serializedVersion: 2
      m_TileIndex: 18
      m_TileSpriteIndex: 18
      m_TileMatrixIndex: 0
      m_TileColorIndex: 0
      m_TileObjectToInstantiateIndex: 65535
      m_AllTileFlags: 1073741825
  - first: {x: -7, y: -5, z: 0}
    second:
      serializedVersion: 2
      m_TileIndex: 17
      m_TileSpriteIndex: 17
      m_TileMatrixIndex: 0
      m_TileColorIndex: 0
      m_TileObjectToInstantiateIndex: 65535
      m_AllTileFlags: 1073741825
  - first: {x: -5, y: -5, z: 0}
    second:
      serializedVersion: 2
      m_TileIndex: 16
      m_TileSpriteIndex: 16
      m_TileMatrixIndex: 0
      m_TileColorIndex: 0
      m_TileObjectToInstantiateIndex: 65535
      m_AllTileFlags: 1073741825
  - first: {x: 0, y: -5, z: 0}
    second:
      serializedVersion: 2
      m_TileIndex: 2
      m_TileSpriteIndex: 34
      m_TileMatrixIndex: 0
      m_TileColorIndex: 0
      m_TileObjectToInstantiateIndex: 65535
      m_AllTileFlags: 1073741825
  - first: {x: 4, y: -5, z: 0}
    second:
      serializedVersion: 2
      m_TileIndex: 15
      m_TileSpriteIndex: 30
      m_TileMatrixIndex: 0
      m_TileColorIndex: 0
      m_TileObjectToInstantiateIndex: 65535
      m_AllTileFlags: 1073741825
  - first: {x: 6, y: -5, z: 0}
    second:
      serializedVersion: 2
      m_TileIndex: 13
      m_TileSpriteIndex: 32
      m_TileMatrixIndex: 0
      m_TileColorIndex: 0
      m_TileObjectToInstantiateIndex: 65535
      m_AllTileFlags: 1073741825
  - first: {x: 8, y: -5, z: 0}
    second:
      serializedVersion: 2
      m_TileIndex: 14
      m_TileSpriteIndex: 31
      m_TileMatrixIndex: 0
      m_TileColorIndex: 0
      m_TileObjectToInstantiateIndex: 65535
      m_AllTileFlags: 1073741825
  - first: {x: 0, y: -3, z: 0}
    second:
      serializedVersion: 2
      m_TileIndex: 12
      m_TileSpriteIndex: 33
      m_TileMatrixIndex: 0
      m_TileColorIndex: 0
      m_TileObjectToInstantiateIndex: 65535
      m_AllTileFlags: 1073741825
  - first: {x: -8, y: -2, z: 0}
    second:
      serializedVersion: 2
      m_TileIndex: 11
      m_TileSpriteIndex: 29
      m_TileMatrixIndex: 0
      m_TileColorIndex: 0
      m_TileObjectToInstantiateIndex: 65535
      m_AllTileFlags: 1073741825
  - first: {x: -6, y: -2, z: 0}
    second:
      serializedVersion: 2
      m_TileIndex: 10
      m_TileSpriteIndex: 28
      m_TileMatrixIndex: 0
      m_TileColorIndex: 0
      m_TileObjectToInstantiateIndex: 65535
      m_AllTileFlags: 1073741825
  - first: {x: -4, y: -2, z: 0}
    second:
      serializedVersion: 2
      m_TileIndex: 1
      m_TileSpriteIndex: 15
      m_TileMatrixIndex: 0
      m_TileColorIndex: 0
      m_TileObjectToInstantiateIndex: 65535
      m_AllTileFlags: 1073741825
  - first: {x: 4, y: -2, z: 0}
    second:
      serializedVersion: 2
      m_TileIndex: 26
      m_TileSpriteIndex: 26
      m_TileMatrixIndex: 0
      m_TileColorIndex: 0
      m_TileObjectToInstantiateIndex: 65535
      m_AllTileFlags: 1073741825
  - first: {x: 6, y: -2, z: 0}
    second:
      serializedVersion: 2
      m_TileIndex: 25
      m_TileSpriteIndex: 25
      m_TileMatrixIndex: 0
      m_TileColorIndex: 0
      m_TileObjectToInstantiateIndex: 65535
      m_AllTileFlags: 1073741825
  - first: {x: 8, y: -2, z: 0}
    second:
      serializedVersion: 2
      m_TileIndex: 22
      m_TileSpriteIndex: 22
      m_TileMatrixIndex: 0
      m_TileColorIndex: 0
      m_TileObjectToInstantiateIndex: 65535
      m_AllTileFlags: 1073741825
  - first: {x: 10, y: -2, z: 0}
    second:
      serializedVersion: 2
      m_TileIndex: 23
      m_TileSpriteIndex: 23
      m_TileMatrixIndex: 0
      m_TileColorIndex: 0
      m_TileObjectToInstantiateIndex: 65535
      m_AllTileFlags: 1073741825
  - first: {x: 12, y: -2, z: 0}
    second:
      serializedVersion: 2
      m_TileIndex: 24
      m_TileSpriteIndex: 24
      m_TileMatrixIndex: 0
      m_TileColorIndex: 0
      m_TileObjectToInstantiateIndex: 65535
      m_AllTileFlags: 1073741825
  - first: {x: 14, y: -2, z: 0}
    second:
      serializedVersion: 2
      m_TileIndex: 27
      m_TileSpriteIndex: 27
      m_TileMatrixIndex: 0
      m_TileColorIndex: 0
      m_TileObjectToInstantiateIndex: 65535
      m_AllTileFlags: 1073741825
  - first: {x: 0, y: -1, z: 0}
    second:
      serializedVersion: 2
      m_TileIndex: 0
      m_TileSpriteIndex: 14
      m_TileMatrixIndex: 0
      m_TileColorIndex: 0
      m_TileObjectToInstantiateIndex: 65535
      m_AllTileFlags: 1073741825
  - first: {x: -9, y: 1, z: 0}
    second:
      serializedVersion: 2
      m_TileIndex: 6
      m_TileSpriteIndex: 10
      m_TileMatrixIndex: 0
      m_TileColorIndex: 0
      m_TileObjectToInstantiateIndex: 65535
      m_AllTileFlags: 1073741825
  - first: {x: -7, y: 1, z: 0}
    second:
      serializedVersion: 2
      m_TileIndex: 9
      m_TileSpriteIndex: 13
      m_TileMatrixIndex: 0
      m_TileColorIndex: 0
      m_TileObjectToInstantiateIndex: 65535
      m_AllTileFlags: 1073741825
  - first: {x: -5, y: 1, z: 0}
    second:
      serializedVersion: 2
      m_TileIndex: 8
      m_TileSpriteIndex: 12
      m_TileMatrixIndex: 0
      m_TileColorIndex: 0
      m_TileObjectToInstantiateIndex: 65535
      m_AllTileFlags: 1073741825
  - first: {x: -3, y: 1, z: 0}
    second:
      serializedVersion: 2
      m_TileIndex: 7
      m_TileSpriteIndex: 11
      m_TileMatrixIndex: 0
      m_TileColorIndex: 0
      m_TileObjectToInstantiateIndex: 65535
      m_AllTileFlags: 1073741825
  - first: {x: 4, y: 1, z: 0}
    second:
      serializedVersion: 2
      m_TileIndex: 19
      m_TileSpriteIndex: 19
      m_TileMatrixIndex: 0
      m_TileColorIndex: 0
      m_TileObjectToInstantiateIndex: 65535
      m_AllTileFlags: 1073741825
  - first: {x: 6, y: 1, z: 0}
    second:
      serializedVersion: 2
      m_TileIndex: 20
      m_TileSpriteIndex: 20
      m_TileMatrixIndex: 0
      m_TileColorIndex: 0
      m_TileObjectToInstantiateIndex: 65535
      m_AllTileFlags: 1073741825
  - first: {x: 8, y: 1, z: 0}
    second:
      serializedVersion: 2
      m_TileIndex: 21
      m_TileSpriteIndex: 21
      m_TileMatrixIndex: 0
      m_TileColorIndex: 0
      m_TileObjectToInstantiateIndex: 65535
      m_AllTileFlags: 1073741825
  m_AnimatedTiles: {}
  m_TileAssetArray:
  - m_RefCount: 1
    m_Data: {fileID: 11400000, guid: e0083a8c79cb0094c8d2cf43f7b4c7d0, type: 2}
  - m_RefCount: 1
    m_Data: {fileID: 11400000, guid: da965f200107fa847a26269405d326e9, type: 2}
  - m_RefCount: 1
    m_Data: {fileID: 11400000, guid: 1813a79e4823e1140ab8506de940d1fa, type: 2}
  - m_RefCount: 0
    m_Data: {fileID: 0}
  - m_RefCount: 0
    m_Data: {fileID: 0}
  - m_RefCount: 0
    m_Data: {fileID: 0}
  - m_RefCount: 1
    m_Data: {fileID: 11400000, guid: 6cb1252afffebd84db0765a52acd6968, type: 2}
  - m_RefCount: 1
    m_Data: {fileID: 11400000, guid: 17562eb49c9087d419cd05509cdfd01d, type: 2}
  - m_RefCount: 1
    m_Data: {fileID: 11400000, guid: a7c0a8dff8d8d274aa7da1b0caee7432, type: 2}
  - m_RefCount: 1
    m_Data: {fileID: 11400000, guid: c4e8f7a8fcee68244a876e828818f899, type: 2}
  - m_RefCount: 1
    m_Data: {fileID: 11400000, guid: 77658a1b9e8843e40a583c409783f18e, type: 2}
  - m_RefCount: 1
    m_Data: {fileID: 11400000, guid: f32bb0edb5ed14443b0cf8d948dfa00e, type: 2}
  - m_RefCount: 1
    m_Data: {fileID: 11400000, guid: 657e5f06c2ab7be44838cbac67828519, type: 2}
  - m_RefCount: 1
    m_Data: {fileID: 11400000, guid: ab21ba2afe777984bb85eaf2ed1a88dc, type: 2}
  - m_RefCount: 1
    m_Data: {fileID: 11400000, guid: 1a3246893e87ca84e8603f236f494080, type: 2}
  - m_RefCount: 1
    m_Data: {fileID: 11400000, guid: e89aeea920feaa94ebf2a9cd8458776d, type: 2}
  - m_RefCount: 1
    m_Data: {fileID: 11400000, guid: 9e60fb17be352dd449fc746334065e40, type: 2}
  - m_RefCount: 1
    m_Data: {fileID: 11400000, guid: 6212263a4a248f64aacdee3d3d540e62, type: 2}
  - m_RefCount: 1
    m_Data: {fileID: 11400000, guid: b27182b2529e2114ca3f4ca62475fa2f, type: 2}
  - m_RefCount: 1
    m_Data: {fileID: 11400000, guid: 1ec3a48c37248064d8f3715b1386e65e, type: 2}
  - m_RefCount: 1
    m_Data: {fileID: 11400000, guid: 6c61be071c2d2c64c8fe8907e7cb31ff, type: 2}
  - m_RefCount: 1
    m_Data: {fileID: 11400000, guid: 04a3de0676c8a6844acbcbecb2add523, type: 2}
  - m_RefCount: 1
    m_Data: {fileID: 11400000, guid: 6ff21b928a5be5e4ebf9b5ae6dd66174, type: 2}
  - m_RefCount: 1
    m_Data: {fileID: 11400000, guid: 589129f4744454e42bfc7fd62c1d2f56, type: 2}
  - m_RefCount: 1
    m_Data: {fileID: 11400000, guid: 249c980a51839904daaf2a75be07457f, type: 2}
  - m_RefCount: 1
    m_Data: {fileID: 11400000, guid: 222809d1beb17d24d8514367f80ef823, type: 2}
  - m_RefCount: 1
    m_Data: {fileID: 11400000, guid: 6bb279da5f9289549a7d8510e548d9bf, type: 2}
  - m_RefCount: 1
    m_Data: {fileID: 11400000, guid: e957b1913f757d34bbb81ed3b7241e62, type: 2}
  - m_RefCount: 0
    m_Data: {fileID: 0}
  - m_RefCount: 0
    m_Data: {fileID: 0}
  - m_RefCount: 0
    m_Data: {fileID: 0}
  - m_RefCount: 0
    m_Data: {fileID: 0}
  - m_RefCount: 0
    m_Data: {fileID: 0}
  - m_RefCount: 0
    m_Data: {fileID: 0}
  - m_RefCount: 0
    m_Data: {fileID: 0}
  m_TileSpriteArray:
  - m_RefCount: 0
    m_Data: {fileID: 0}
  - m_RefCount: 0
    m_Data: {fileID: 0}
  - m_RefCount: 0
    m_Data: {fileID: 0}
  - m_RefCount: 0
    m_Data: {fileID: 0}
  - m_RefCount: 0
    m_Data: {fileID: 0}
  - m_RefCount: 0
    m_Data: {fileID: 0}
  - m_RefCount: 0
    m_Data: {fileID: 0}
  - m_RefCount: 0
    m_Data: {fileID: 0}
  - m_RefCount: 0
    m_Data: {fileID: 0}
  - m_RefCount: 0
    m_Data: {fileID: 0}
  - m_RefCount: 1
    m_Data: {fileID: 21300000, guid: e415ea3c991d84642a262a0b5ba9e1bf, type: 3}
  - m_RefCount: 1
    m_Data: {fileID: 21300000, guid: 98dc1a75f5d4e7541880561a737ec447, type: 3}
  - m_RefCount: 1
    m_Data: {fileID: 21300000, guid: 68c1de4c8aa0cf84e9172f2c4698c944, type: 3}
  - m_RefCount: 1
    m_Data: {fileID: 21300000, guid: e136df4b61aba134aa8bb63e11dea713, type: 3}
  - m_RefCount: 1
    m_Data: {fileID: 21300000, guid: c8ee7b61dc8714b49b899efac8ed7b82, type: 3}
  - m_RefCount: 1
    m_Data: {fileID: 21300000, guid: 0ad7eb2d915b9c14b860bdeec3699115, type: 3}
  - m_RefCount: 1
    m_Data: {fileID: 21300000, guid: 0df82346a4b0fd84d8aaf99385439743, type: 3}
  - m_RefCount: 1
    m_Data: {fileID: 21300000, guid: 82166b102997c3d4997533863f339600, type: 3}
  - m_RefCount: 1
    m_Data: {fileID: 21300000, guid: ac3fc9be019a85e4ba461c5bfc7d04f5, type: 3}
  - m_RefCount: 1
    m_Data: {fileID: 21300000, guid: 9fc10a0f802247649992ef9de8428e78, type: 3}
  - m_RefCount: 1
    m_Data: {fileID: 21300000, guid: 555bb6ba045057647857a380c4b71a7b, type: 3}
  - m_RefCount: 1
    m_Data: {fileID: 21300000, guid: 6b3e7e1e9fda7894ea4795bda37fba55, type: 3}
  - m_RefCount: 1
    m_Data: {fileID: 21300000, guid: 59dc82fd2d6c6154ca88092074c92857, type: 3}
  - m_RefCount: 1
    m_Data: {fileID: 21300000, guid: 0d66474e5021b5244a594cc9e8dfc876, type: 3}
  - m_RefCount: 1
    m_Data: {fileID: 21300000, guid: f41277b5bb08f894788b72b82eee7f9a, type: 3}
  - m_RefCount: 1
    m_Data: {fileID: 21300000, guid: 7521894360408914ca551ddae43bef6c, type: 3}
  - m_RefCount: 1
    m_Data: {fileID: 21300000, guid: f9604858453c3704682c0ddd5e89c016, type: 3}
  - m_RefCount: 1
    m_Data: {fileID: 21300000, guid: 871cf805cc2cf894cba328edc5782bae, type: 3}
  - m_RefCount: 1
    m_Data: {fileID: 21300000, guid: bf6c0a3ac8794c8469cd02cf15a4268f, type: 3}
  - m_RefCount: 1
    m_Data: {fileID: 21300000, guid: 2db46f11301e77a4a9b5e37ebbf1f4b0, type: 3}
  - m_RefCount: 1
    m_Data: {fileID: 21300000, guid: a12bcef4786bed44db3b4191403c8fd1, type: 3}
  - m_RefCount: 1
    m_Data: {fileID: 21300000, guid: 16d31848d3776284986f8fef3443eef9, type: 3}
  - m_RefCount: 1
    m_Data: {fileID: 21300000, guid: f31b5c5d4ad7b314ca2bbb67ee26afc9, type: 3}
  - m_RefCount: 1
    m_Data: {fileID: 21300000, guid: 0f079f6bed624b147a73139f80424136, type: 3}
  - m_RefCount: 1
    m_Data: {fileID: 21300000, guid: 66763d4eacb56424d85d74ca6fb5a4d0, type: 3}
  m_TileMatrixArray:
  - m_RefCount: 25
    m_Data:
      e00: 1
      e01: 0
      e02: 0
      e03: 0
      e10: 0
      e11: 1
      e12: 0
      e13: 0
      e20: 0
      e21: 0
      e22: 1
      e23: 0
      e30: 0
      e31: 0
      e32: 0
      e33: 1
  m_TileColorArray:
  - m_RefCount: 25
    m_Data: {r: 1, g: 1, b: 1, a: 1}
  - m_RefCount: 0
    m_Data: {r: -0.0000000019013982, g: -0.0000000019013982, b: -0.0000000019013982,
      a: -0.0000000019013982}
  - m_RefCount: 0
    m_Data: {r: -0.0000000010460184, g: -0.0000000010460184, b: -0.0000000010460184,
      a: -0.0000000010460184}
  - m_RefCount: 0
    m_Data: {r: -0.0000000010853363, g: -0.0000000010853363, b: -0.0000000010853363,
      a: -0.0000000010853363}
  - m_RefCount: 0
    m_Data: {r: -0.0000000018600232, g: -0.0000000018600232, b: -0.0000000018600232,
      a: -0.0000000018600232}
  - m_RefCount: 0
    m_Data: {r: -0.000000001035179, g: -0.000000001035179, b: -0.000000001035179,
      a: -0.000000001035179}
  - m_RefCount: 0
    m_Data: {r: -0.000000001881972, g: -0.000000001881972, b: -0.000000001881972,
      a: -0.000000001881972}
  - m_RefCount: 0
    m_Data: {r: -0.0000000016624035, g: -0.0000000016624035, b: -0.0000000016624035,
      a: -0.0000000016624035}
  - m_RefCount: 0
    m_Data: {r: -0.0000000019098252, g: -0.0000000019098252, b: -0.0000000019098252,
      a: -0.0000000019098252}
  - m_RefCount: 0
    m_Data: {r: -0.0000000018993305, g: -0.0000000018993305, b: -0.0000000018993305,
      a: -0.0000000018993305}
  - m_RefCount: 0
    m_Data: {r: -0.0000000019098465, g: -0.0000000019098465, b: -0.0000000019098465,
      a: -0.0000000019098465}
  m_TileObjectToInstantiateArray: []
  m_AnimationFrameRate: 1
  m_Color: {r: 1, g: 1, b: 1, a: 1}
  m_Origin: {x: -16, y: -13, z: 0}
  m_Size: {x: 31, y: 15, z: 1}
  m_TileAnchor: {x: 0.5, y: 0.5, z: 0}
  m_TileOrientation: 0
  m_TileOrientationMatrix:
    e00: 1
    e01: 0
    e02: 0
    e03: 0
    e10: 0
    e11: 1
    e12: 0
    e13: 0
    e20: 0
    e21: 0
    e22: 1
    e23: 0
    e30: 0
    e31: 0
    e32: 0
    e33: 1
--- !u!483693784 &1404170442045928834
TilemapRenderer:
  m_ObjectHideFlags: 0
  m_CorrespondingSourceObject: {fileID: 0}
  m_PrefabInstance: {fileID: 0}
  m_PrefabAsset: {fileID: 0}
  m_GameObject: {fileID: 4060409928005448737}
  m_Enabled: 0
  m_CastShadows: 0
  m_ReceiveShadows: 0
  m_DynamicOccludee: 0
  m_MotionVectors: 1
  m_LightProbeUsage: 0
  m_ReflectionProbeUsage: 0
  m_RayTracingMode: 0
  m_RenderingLayerMask: 1
  m_RendererPriority: 0
  m_Materials:
  - {fileID: 10754, guid: 0000000000000000f000000000000000, type: 0}
  m_StaticBatchInfo:
    firstSubMesh: 0
    subMeshCount: 0
  m_StaticBatchRoot: {fileID: 0}
  m_ProbeAnchor: {fileID: 0}
  m_LightProbeVolumeOverride: {fileID: 0}
  m_ScaleInLightmap: 1
  m_ReceiveGI: 1
  m_PreserveUVs: 0
  m_IgnoreNormalsForChartDetection: 0
  m_ImportantGI: 0
  m_StitchLightmapSeams: 1
  m_SelectedEditorRenderState: 0
  m_MinimumChartSize: 4
  m_AutoUVMaxDistance: 0.5
  m_AutoUVMaxAngle: 89
  m_LightmapParameters: {fileID: 0}
  m_SortingLayerID: 0
  m_SortingLayer: 0
  m_SortingOrder: 0
  m_ChunkSize: {x: 32, y: 32, z: 32}
  m_ChunkCullingBounds: {x: 0.022111535, y: 0.7139616, z: 0}
  m_MaxChunkCount: 16
  m_MaxFrameAge: 16
  m_SortOrder: 3
  m_Mode: 0
  m_DetectChunkCullingBounds: 0
  m_MaskInteraction: 0
--- !u!1 &6898411186960548524
GameObject:
  m_ObjectHideFlags: 0
  m_CorrespondingSourceObject: {fileID: 0}
  m_PrefabInstance: {fileID: 0}
  m_PrefabAsset: {fileID: 0}
  serializedVersion: 6
  m_Component:
  - component: {fileID: 2569876062651468194}
  - component: {fileID: 8664567627932618704}
  m_Layer: 31
  m_Name: Palette
  m_TagString: Untagged
  m_Icon: {fileID: 0}
  m_NavMeshLayer: 0
  m_StaticEditorFlags: 0
  m_IsActive: 1
--- !u!4 &2569876062651468194
Transform:
  m_ObjectHideFlags: 0
  m_CorrespondingSourceObject: {fileID: 0}
  m_PrefabInstance: {fileID: 0}
  m_PrefabAsset: {fileID: 0}
  m_GameObject: {fileID: 6898411186960548524}
  m_LocalRotation: {x: 0, y: 0, z: 0, w: 1}
  m_LocalPosition: {x: 0, y: 0, z: 0}
  m_LocalScale: {x: 1, y: 1, z: 1}
  m_Children:
  - {fileID: 349709765867478825}
  m_Father: {fileID: 0}
  m_RootOrder: 0
  m_LocalEulerAnglesHint: {x: 0, y: 0, z: 0}
--- !u!156049354 &8664567627932618704
Grid:
  m_ObjectHideFlags: 0
  m_CorrespondingSourceObject: {fileID: 0}
  m_PrefabInstance: {fileID: 0}
  m_PrefabAsset: {fileID: 0}
  m_GameObject: {fileID: 6898411186960548524}
  m_Enabled: 1
  m_CellSize: {x: 1, y: 0.5, z: 1}
  m_CellGap: {x: 0, y: 0, z: 0}
  m_CellLayout: 2
  m_CellSwizzle: 0
--- !u!114 &-3067135633115256467
MonoBehaviour:
  m_ObjectHideFlags: 0
  m_CorrespondingSourceObject: {fileID: 0}
  m_PrefabInstance: {fileID: 0}
  m_PrefabAsset: {fileID: 0}
  m_GameObject: {fileID: 0}
  m_Enabled: 1
  m_EditorHideFlags: 0
  m_Script: {fileID: 12395, guid: 0000000000000000e000000000000000, type: 0}
  m_Name: Palette Settings
  m_EditorClassIdentifier: 
  cellSizing: 100
